epoch,loss,dsc,val_dsc,val_loss,epoch_time
1.0,0.5728849608164567,0.2446153343010407,0.38692332804203033,0.46411387622356415,168.43614864349365
2.0,0.3051583904486436,0.5364449127362325,0.6388915926218033,0.23122133314609528,170.40480709075928
3.0,0.2346805792588454,0.637660597379391,0.6746061593294144,0.20930276811122894,170.03141021728516
4.0,0.19681753332798296,0.7053806220109646,0.7123790085315704,0.1814374178647995,170.3684618473053
5.0,0.16695533348963812,0.7307954017932599,0.8006455898284912,0.15620705485343933,169.82349562644958
6.0,0.1323725741643172,0.7872370137618139,0.8057916015386581,0.12623512744903564,169.91808223724365
7.0,0.12836031730358416,0.7891766566496629,0.8467148095369339,0.11481186747550964,170.0083532333374
8.0,0.11344652451001681,0.8163659435052139,0.8156981915235519,0.11531881988048553,170.26469922065735
9.0,0.10749045472878677,0.8167964139809976,0.8413901925086975,0.0871463418006897,170.28283762931824
10.0,0.10368191737395066,0.8181234987882468,0.8610749393701553,0.09890589118003845,170.2783079147339
11.0,0.09977654768870427,0.8344325182529596,0.8678221106529236,0.08078840374946594,171.24199175834656
12.0,0.10349796597774212,0.8352596725408847,0.8559648841619492,0.11365459859371185,170.57405138015747
13.0,0.10972859997015733,0.8404777623139895,0.8792988508939743,0.08041210472583771,171.00417971611023
14.0,0.09313102639638461,0.85426731636891,0.8785810172557831,0.06873935461044312,169.77423930168152
15.0,0.09338745704064003,0.854441680587255,0.8560892343521118,0.08157648146152496,170.9508674144745
16.0,0.08346241254072922,0.8580361043031399,0.8972641825675964,0.06872738897800446,170.60443258285522
17.0,0.07492083998826835,0.8672308566478583,0.8983627259731293,0.056839436292648315,170.56198740005493
18.0,0.092980485696059,0.8554950104309962,0.8709945976734161,0.08313323557376862,170.94656991958618
19.0,0.08771661153206459,0.8576675149110647,0.8941310495138168,0.07439640164375305,170.3107807636261
20.0,0.08329164523344773,0.8629558636591985,0.8849206268787384,0.07369402050971985,170.423992395401
21.0,0.07370579013457665,0.8655835275466626,0.9066393673419952,0.0548073947429657,170.29110598564148
22.0,0.07811287045478821,0.8681269116126574,0.9039048254489899,0.06386739015579224,169.80160856246948
23.0,0.07277082021419819,0.8714943677186966,0.9004745334386826,0.06992530822753906,170.15222549438477
24.0,0.0799287695151109,0.8731076419353485,0.9014792442321777,0.05438318848609924,169.633229970932
25.0,0.07134917378425598,0.8689256872122104,0.9132175594568253,0.051640018820762634,170.48987817764282
26.0,0.07226613622445327,0.8767550553266819,0.9118200838565826,0.05515855550765991,169.8597285747528
27.0,0.0844246859733875,0.8718903454450461,0.9170289486646652,0.05282294750213623,169.66193795204163
28.0,0.09299998329235958,0.8794657989190175,0.9093232899904251,0.05104734003543854,169.7523488998413
29.0,0.08926993837723365,0.8716236100747035,0.8990588188171387,0.0544857531785965,171.76969480514526
30.0,0.07357174845842215,0.8750188236053174,0.9029865264892578,0.05034510791301727,171.17230558395386
31.0,0.06834100759946383,0.8793870084560834,0.917952373623848,0.05701029300689697,171.1263988018036
32.0,0.07585840500318088,0.8750536888837814,0.9187764227390289,0.048801884055137634,171.14900588989258
33.0,0.08337831955689651,0.8800267829344823,0.9080533087253571,0.05345030128955841,169.91554808616638
34.0,0.07848897805580726,0.8746778747210135,0.9192851185798645,0.055532440543174744,170.4419605731964
35.0,0.06499872987086956,0.8797261669085576,0.914876714348793,0.0523742139339447,169.9133322238922
36.0,0.08047765951890212,0.8806597487284586,0.9254418462514877,0.056376367807388306,170.010906457901
37.0,0.061517405968446,0.8775201382545325,0.9190714508295059,0.04853084683418274,170.7096655368805
38.0,0.07858808453266437,0.8790413313187085,0.9078542739152908,0.05094510316848755,170.17888522148132
39.0,0.08766705026993385,0.872639917410337,0.9016712009906769,0.06962114572525024,170.07835936546326
40.0,0.09639413540179913,0.8703309561197574,0.903945192694664,0.06458963453769684,170.12672209739685
41.0,0.08143757169063275,0.8679198806102459,0.9021536558866501,0.05459544062614441,172.55407810211182
42.0,0.07457963778422429,0.8773111597849772,0.9144423007965088,0.05442865192890167,170.3278148174286
43.0,0.07754981288543114,0.879658444569661,0.9071750193834305,0.05355650186538696,169.59849905967712
44.0,0.06703016849664542,0.875850593814483,0.9196305274963379,0.051469966769218445,170.88197994232178
45.0,0.062008598676094644,0.8818342112577878,0.9151411950588226,0.04954242706298828,170.74247026443481
46.0,0.07554216109789334,0.8818170646062264,0.9200946539640427,0.04772891104221344,170.5444676876068
47.0,0.0826453474851755,0.8812695867740191,0.9106391221284866,0.04973249137401581,171.2916088104248
48.0,0.06977858680945176,0.8847562200748004,0.9136007726192474,0.04937411844730377,170.12357211112976
49.0,0.07105288138756385,0.8785459846258163,0.9124153405427933,0.05004777014255524,171.8892319202423
50.0,0.08768390462948726,0.881584026492559,0.9052591323852539,0.05046963691711426,171.1367700099945
51.0,0.086008771107747,0.8809045541744965,0.9183957278728485,0.049839943647384644,173.33878302574158
52.0,0.07354033910311185,0.8838491348119882,0.913243368268013,0.04837925732135773,170.5920729637146
53.0,0.06653066323353694,0.8841068160075408,0.9198344498872757,0.04733474552631378,170.88255167007446
54.0,0.06935868354944083,0.8773983476253656,0.9163668006658554,0.04696547985076904,172.1877088546753
55.0,0.08776490734173702,0.8789671751169058,0.903641551733017,0.051303520798683167,171.71023631095886
56.0,0.06688049664864174,0.8798040105746343,0.9102651476860046,0.04788273572921753,172.10801935195923
57.0,0.0720564745939695,0.88250604730386,0.9059847891330719,0.057377398014068604,171.2903082370758
58.0,0.07663302925916818,0.8834481686353683,0.9082372188568115,0.047866106033325195,171.62047410011292
59.0,0.07736977017842807,0.8786370272819812,0.9207381755113602,0.046439990401268005,172.59871697425842
60.0,0.07165879698900077,0.8837914719031408,0.917333260178566,0.05178278684616089,171.82916641235352
61.0,0.06656508033092205,0.8845732498627442,0.9118267148733139,0.05429627001285553,171.81567645072937
62.0,0.06852170137258676,0.8853312065968146,0.9181892722845078,0.04823504388332367,172.254620552063
63.0,0.07911017537117004,0.8842054207164508,0.9136880487203598,0.05019959807395935,171.86945176124573
64.0,0.06553471546906692,0.8865077060002547,0.9234712868928909,0.045275360345840454,172.4962396621704
65.0,0.06762414253675021,0.8849840404895636,0.9093030989170074,0.047626346349716187,173.0499894618988
66.0,0.06461459398269653,0.8845033026658572,0.9267815202474594,0.04682232439517975,170.7328963279724
67.0,0.07491075992584229,0.8852324073131268,0.9127309173345566,0.04983144998550415,171.5168445110321
68.0,0.07231623622087333,0.8852991931713544,0.8976625204086304,0.055799052119255066,169.94619512557983
69.0,0.07496421841474679,0.8825798160754718,0.9136075526475906,0.04766744375228882,169.6012146472931
70.0,0.07700643401879531,0.8860507240662208,0.9132999777793884,0.04596596956253052,169.95884680747986
71.0,0.06106040569452139,0.8899492162924546,0.9227537661790848,0.046618685126304626,171.49941897392273
72.0,0.07061424851417542,0.8877980663226201,0.9133696258068085,0.04846160113811493,171.27195405960083
73.0,0.07704077317164494,0.8819410697771952,0.9092446267604828,0.052464887499809265,171.04068231582642
74.0,0.07553322498614971,0.8855471656872675,0.9231586754322052,0.04793423414230347,172.25500416755676
75.0,0.08450194276296176,0.8873691088878192,0.9127919226884842,0.05138993263244629,170.85111379623413
76.0,0.06579475677930392,0.8869142050926502,0.9142812788486481,0.048285841941833496,170.2383406162262
77.0,0.07982019736216618,0.8852816361647385,0.9096445143222809,0.04877045750617981,170.46166825294495
78.0,0.0665396383175483,0.8883308401474586,0.9221079349517822,0.046953752636909485,170.8319296836853
79.0,0.06783795356750488,0.8897714225145487,0.9086063951253891,0.048294976353645325,170.15348839759827
80.0,0.061594483944085926,0.8856165592487042,0.9286797493696213,0.04814669489860535,170.0473029613495
81.0,0.0627810381926023,0.8876944264540305,0.9217042922973633,0.04661493003368378,170.43899297714233
82.0,0.0669101935166579,0.8914535721907249,0.9089232534170151,0.05577591061592102,170.26610851287842
83.0,0.0743732383617988,0.8885256430277457,0.9050491452217102,0.0491316020488739,169.75060939788818
84.0,0.07181000251036423,0.885548852957212,0.9227364659309387,0.04792441427707672,170.23735404014587
85.0,0.08208468556404114,0.8866199747874186,0.9214669466018677,0.048837050795555115,170.17355227470398
86.0,0.06034178000230055,0.8900106159540323,0.9128719866275787,0.0516577810049057,168.95594811439514
87.0,0.07086106676321763,0.8877915900487167,0.9175326228141785,0.05302484333515167,170.42642998695374
88.0,0.07569487049029423,0.8860778315709188,0.911415234208107,0.04591687023639679,170.78753852844238
89.0,0.07803466457587022,0.8894864962651179,0.9249493926763535,0.046128615736961365,170.324316740036
90.0,0.0592327186694512,0.8905785427643702,0.9263423830270767,0.045064374804496765,170.54686665534973
91.0,0.07140664870922382,0.8834425990398114,0.9127341359853745,0.0490044504404068,171.4335012435913
92.0,0.0664301743874183,0.8859855280472682,0.9209668040275574,0.04508917033672333,170.80387425422668
93.0,0.08062414481089665,0.8873848101267447,0.9178745150566101,0.04535701870918274,170.1595902442932
94.0,0.06779074898132911,0.8848219915078237,0.9271494448184967,0.046989843249320984,170.64155983924866
95.0,0.07434430030676034,0.8884906482238036,0.9028593599796295,0.05022458732128143,170.97245740890503
96.0,0.07428652735856864,0.8795174004939886,0.921819657087326,0.04581467807292938,170.04933214187622
97.0,0.06619332157648526,0.8905869561892289,0.920179545879364,0.04481858015060425,170.18405938148499
98.0,0.07719070865557744,0.8907517997118143,0.9126678854227066,0.04867662489414215,170.26097750663757
99.0,0.07062720564695504,0.8853179147610297,0.9177450835704803,0.048371538519859314,169.67454147338867
100.0,0.07495332681215726,0.8909159314173919,0.9102693349123001,0.04799835383892059,170.02209424972534
