,Name,BV,TV,BVTV,TbN,TbTh,TbSp,BSBV,Threshold level
0,G1M1.nii,1.1475876024158806,2.334201191311127,0.49173250644117344,5.376470470040776,0.09146009620646982,0.09453553151478049,21.867460050392133,4188.507399959387
1,G1M2.nii,1.1508866731191472,2.3799783919780833,0.4836571950065064,5.578260120819118,0.08670395150656504,0.09256341472252343,23.06699943022279,3931.525613482819
2,G1M3.nii,1.0463236374989926,2.214732232701397,0.47252738817726564,5.651938526135616,0.08360448118680183,0.09332596407119484,23.922162683257326,3843.0105981172446
3,G1M4.nii,1.0965076201126283,2.207766235114743,0.4967430892843312,5.251596467063346,0.09458896783097774,0.09582931854569669,21.144114856753973,4013.4424302926896
4,G1M5.nii,1.0329426599164162,2.1952099016538478,0.4706309216810912,5.531835477984625,0.08507681104293305,0.09569501486905574,23.508168389042257,3527.4301132872056
5,G1M6.nii,1.157549628716364,2.5021890357980396,0.46269950507395113,5.4629721359080925,0.084697394305314,0.098353145789336,23.6134773260022,3515.9423853165545
6,G1M7.nii,1.0880209403399952,2.3134409994294387,0.47038110795227367,5.1518381810538045,0.0913035486405859,0.10280192689192601,21.904953638471916,3541.4277450151053
7,G1M8.nii,1.1982160312458618,2.394698062446506,0.5004505787368595,5.6444973899626305,0.08866167245055148,0.08850202006496946,22.557661554551014,3910.3364428416444
8,G2M1.nii,1.0053187154274612,2.119536291706527,0.47438287287943276,5.697058810025827,0.08326803157527563,0.09226113765853583,24.01882165536684,3486.9620785463253
9,G2M2.nii,1.0438878883855176,2.287464372833662,0.4564520874381248,5.6554392683892045,0.08071028009962744,0.09611064441979053,24.779990820639362,3252.2726769193373
10,G2M3.nii,0.9460357603504156,2.1679864508061177,0.436449572806479,5.696236961308724,0.07662068410619696,0.098933810342055,26.102612151413084,2914.0749234197438
11,G2M4.nii,0.8564820164826258,1.8514043589061429,0.4626871556659825,5.878105684923104,0.07871365036064935,0.09140918403562975,25.40855354613109,3321.8839127147025
12,G2M5.nii,0.9771184794726295,2.076438893846243,0.47065506347402286,5.580465659486886,0.08433974728863376,0.09485676802366516,23.713611485643312,3387.7204200458477
13,G2M6.nii,1.0499929295924753,2.2466408493509653,0.46745385666868894,5.626132666644622,0.08308617737367975,0.09465580975162412,24.071392657830533,3558.7465505169716
14,G2M8.nii,1.035702158892023,2.3455110951781597,0.4416394196067129,6.038907943976423,0.07313233182288051,0.0924605219309942,27.347685355415827,2659.9295245858793
15,G3M1.nii,1.1360275688380075,2.4480435356291084,0.4641382200766491,5.739966705209004,0.08086078611840117,0.09335625229969677,24.733867873501516,3410.6391322356926
16,G3M2.nii,0.9661441151733248,2.1516542564971113,0.4491098475870191,5.680931735599473,0.07905566700840269,0.09697179583427065,25.298629126580177,3254.9467828005804
17,G3M3.nii,0.9834252088219921,2.285441485294092,0.43039920960549843,5.834453417675086,0.07376855701712054,0.09762710396640309,27.111822175616513,2868.763112239607
18,G3M4.nii,1.0946225818679014,2.361106784076085,0.46370184895930394,5.640707759795549,0.08220632387027105,0.09507639358010891,24.32902854476475,3517.9306885907995
19,G3M5.nii,0.8406978474803046,1.8194705056726987,0.46214535747438956,5.046298616494982,0.09158105625453113,0.10658399024732888,21.838577559549023,3685.3760489988035
20,G3M6.nii,1.0193397417810748,2.277870422970352,0.4475784625204851,5.733351206772799,0.07806576753779908,0.0963522933719707,25.61942402003041,3372.714052288299
21,G3M7.nii,1.067786232281503,2.2915983523832866,0.4660503578285914,5.532962212670391,0.08423161769681778,0.09650339576667863,23.74405306091561,3403.961280328155
22,G3M8.nii,0.9832351172107304,2.170823258782234,0.45300146534286767,5.604172317636073,0.08083289372050406,0.09760558806083693,24.742402603021993,3312.0405201161034
23,G4M1.nii,0.9693838447168058,1.9867476817478156,0.4880095512868265,5.767985633207872,0.08460658231830917,0.08876416851066762,23.63882271565522,3710.8814565309744
24,G4M2.nii,1.0547169019062317,2.2099424132870955,0.477334112837796,5.592363234039819,0.08535463324920307,0.09346064718772568,23.431651263274258,3636.116037414404
25,G4M3.nii,1.0681107241815642,2.2225015068612093,0.48068661417322833,5.930587384185344,0.08105210884423346,0.08756525318412574,24.675483815524338,3543.3707266591678
26,G4M4.nii,0.9170339882337416,1.9580042451753767,0.46844688457609807,5.809597267123905,0.08063328024939102,0.09149569083418621,24.80365419606137,3289.927373340143
27,G4M5.nii,0.9088646162120947,1.910318295199766,0.47585348400291677,5.501249815536358,0.08649915927450429,0.09527771571413,23.12161201073664,3716.5271690510003
28,G4M6.nii,0.1292060274357893,0.3206210680811278,0.40312393760857834,6.495727205313533,0.06205986256301238,0.09188748904097672,32.22694858483296,2405.4039504586412
29,G4M7.nii,0.9178489981575293,2.174515626491817,0.4221947116556405,6.189389208864529,0.06821266160657136,0.09335416934466148,29.320069806619706,2313.1881782537557
30,G4M8.nii,0.9597155781240159,2.016171113722657,0.47608041377422167,5.4785677715530525,0.08689869937289531,0.09563075753962222,23.015304192502366,3547.4709181557923
31,G5M1.nii,0.9496295623961214,1.9085151595149004,0.49765733232451737,5.654235567543338,0.0880149626558167,0.08884360435193919,22.72340906194573,3926.9604266788506
32,G5M2.nii,0.8486485719831202,1.757335972192796,0.4830001690053325,5.897913457974918,0.08189339712203463,0.08765809038713537,24.42199335093733,3649.114253864219
33,G5M3.nii,1.0383570621761147,2.176285746740782,0.4772149351144652,5.4986662609823185,0.08678739760961822,0.09507488544906542,23.044820504888026,3669.8058465446306
34,G5M4.nii,0.9823090256157007,2.1119020550721306,0.46521003342011136,5.780081902834169,0.0804850244755188,0.09252290461795414,24.849343254015434,3475.019107420704
35,G5M5.nii,1.073222728130983,2.174184449235118,0.49370223785004497,5.455730645680106,0.09049241429119353,0.0928010921050228,22.101300044490404,3876.6758031170302
36,G5M6.nii,0.9233672820644564,1.9666406007570583,0.4695984013342554,5.52961677455406,0.08492422178246277,0.09592013701682235,23.55040715148489,3567.810193528048
37,G5M7.nii,1.0977211308585235,2.202740262587036,0.49841742556997193,5.643047412656408,0.08832416053285416,0.0888850540764663,22.643860840953646,3928.857349028937
38,G5M8.nii,0.966153215373275,1.998364377099955,0.4835365493608278,5.380897543720002,0.08986169043957341,0.0959809114451421,22.256425293322074,3917.8575781413415
39,G6M1.nii,1.1027770017149636,2.2771579386107144,0.4843524390029686,5.584706568078201,0.08672835951158005,0.09233207773966809,23.060507673190315,3657.021201847916
40,G6M2.nii,0.9730418378021477,2.1322050271351407,0.45645555930233594,6.110145538821418,0.07470453140636342,0.08895769130934776,26.772137678245816,3151.399996998407
41,G6M3.nii,1.1473741064816456,2.433127984594326,0.47166203888650515,5.880517208750554,0.08020757735129903,0.08984549187736361,24.935299956016042,3403.9166720095745
42,G6M4.nii,1.0498837118236164,2.217602503539693,0.4735162006149889,5.8841050014282805,0.08047378496815569,0.08947559556758672,24.85281387959347,3474.8485593215373
43,G6M5.nii,1.0732133293096422,2.2627993690259043,0.4743581528235973,5.746073564313043,0.0825534423662235,0.09147844024152246,24.226730499348555,3292.0418812049647
44,G6M6.nii,0.963426307314412,2.1622164454066093,0.44566921559250733,6.016246479626773,0.07407761917695818,0.09213897507102826,26.998707871838562,3113.2713981661423
45,G6M7.nii,1.0165760265092294,2.198792057337849,0.462407085345044,5.534675415551212,0.08354728157061975,0.09713178719468156,23.938540696976073,3478.767656513213
46,G6M8.nii,1.0652307301559703,2.331015409507655,0.45705778081317333,5.566414421768063,0.0821099088536778,0.09753895021965894,24.357596152786588,3305.0101813972965
47,G7M1.nii,1.0786909230581159,2.2899527137603206,0.47114986975726597,5.493064601522813,0.08577176930099303,0.09627597135779609,23.317695510996586,3551.2481585882692
48,G7M2.nii,0.9509008548350341,2.069365446247518,0.459594924768429,5.674725398782407,0.080989808752163,0.0952301719035643,24.694465029794085,3423.319728377689
49,G7M3.nii,1.1154848474435128,2.3308465021542695,0.4786659464719109,5.443265661963849,0.08793727445946765,0.09577597087921655,22.743484060582826,3548.896181695012
50,G7M4.nii,0.9557455435644603,2.137049395423822,0.44732917586359056,5.64408084823268,0.07925633737221568,0.09792043009261041,25.23457513065858,3079.2354292415152
51,G7M5.nii,1.0458487285460831,2.2836341413639474,0.4580500484755385,5.633767722978182,0.08130439006338713,0.096196715621419,24.598917702239017,3367.893051226427
52,G7M6.nii,1.0760030301637133,2.1040210143866145,0.5114792214328863,5.255480107523508,0.0973230249127336,0.09295454812354241,20.550121636615128,4252.575291382825
53,G7M7.nii,0.974432934659101,1.941487869812936,0.5019618972664266,5.159771101709356,0.09728375297503683,0.09652329394390785,20.55841740103513,3865.9735563650147
54,G7M8.nii,0.8515767049693409,1.8666273533027675,0.45628748738366726,5.845318270533972,0.07806033243455625,0.09301675074857205,25.621207822510208,3329.7833381905766
55,G8M1.nii,0.8307951048963063,1.6790322329892189,0.4948833552706027,5.721932140549202,0.08648885430911503,0.0882772868188743,23.124366902258995,3968.356119306981
56,G8M2.nii,0.7960349466216465,1.6696668880400043,0.47684957539437506,5.710540042579229,0.08350341155807756,0.09161137487958812,23.951117237994257,3734.105122758011
57,G8M3.nii,0.8866571056977373,1.699332202576134,0.5218762431355379,7.853360058169895,0.06645260618002954,0.06088142569842665,30.096637513082875,4385.350839035574
58,G8M4.nii,0.9828330256293139,2.093044054580261,0.46964564528982666,6.0115315187118945,0.07812412591167098,0.08822283523913281,25.60028642446827,3166.830672933775
59,G8M5.nii,0.9935619690910084,2.2400004393453665,0.4436418636461851,6.356272199063251,0.06979591964478273,0.08752899796138491,28.65497023577797,2972.3565046544727
60,G8M6.nii,0.8936021871003491,1.8666535686534014,0.4788039958235319,5.818979107677152,0.08228316118059807,0.08956828930504986,24.306309715183733,3577.895639190871
61,G8M7.nii,0.9966315829000512,2.082651218080505,0.4786435550860682,5.753085917336968,0.08319770675485173,0.09062205091407036,24.039124129865137,3615.4501202794518
