sample_name,seg_name,cross_fold_number
G7M4,G7M4_med_resampled,0
G5M5,G5M5_med_resampled,0
G3M4,G3M4_med_resampled,0
G4M8,G4M8_med_resampled,0
G1M2,G1M2_med_resampled,0
G3M1,G3M1_med_resampled,0
G8M4,G8M4_med_resampled,0
G6M2,G6M2_med_resampled,0
G4M6,G4M6_med_resampled,0
G1M1,G1M1_med_resampled,0
G2M2,G2M2_med_resampled,0
G1M7,G1M7_med_resampled,0
G3M7,G3M7_med_resampled,0
G5M2,G5M2_med_resampled,0
G5M3,G5M3_med_resampled,0
G1M6,G1M6_med_resampled,0
G5M6,G5M6_med_resampled,0
G4M3,G4M3_med_resampled,0
G8M3,G8M3_med_resampled,0
G3M5,G3M5_med_resampled,0
G1M5,G1M5_med_resampled,0
G4M7,G4M7_med_resampled,0
G8M6,G8M6_med_resampled,0
G5M7,G5M7_med_resampled,0
G8M7,G8M7_med_resampled,0
G6M3,G6M3_med_resampled,0
G4M5,G4M5_med_resampled,0
G2M8,G2M8_med_resampled,0
G6M8,G6M8_med_resampled,0
G4M1,G4M1_med_resampled,0
G5M1,G5M1_med_resampled,0
G2M6,G2M6_med_resampled,0
G8M2,G8M2_med_resampled,0
G6M4,G6M4_med_resampled,0
G4M2,G4M2_med_resampled,0
G3M3,G3M3_med_resampled,0
G2M3,G2M3_med_resampled,0
G6M5,G6M5_med_resampled,0
G7M3,G7M3_med_resampled,0
G3M8,G3M8_med_resampled,0
G2M5,G2M5_med_resampled,0
G7M8,G7M8_med_resampled,0
G3M6,G3M6_med_resampled,0
G1M8,G1M8_med_resampled,0
G4M4,G4M4_med_resampled,0
G7M7,G7M7_med_resampled,0
G2M1,G2M1_med_resampled,0
G7M5,G7M5_med_resampled,0
G3M2,G3M2_med_resampled,0
G1M4,G1M4_med_resampled,0
G1M3,G1M3_med_resampled,0
G5M8,G5M8_med_resampled,0
G8M1,G8M1_med_resampled,1
G6M1,G6M1_med_resampled,1
G7M1,G7M1_med_resampled,1
G5M4,G5M4_med_resampled,1
G8M5,G8M5_med_resampled,1
G7M2,G7M2_med_resampled,1
G6M7,G6M7_med_resampled,1
G7M6,G7M6_med_resampled,1
G6M6,G6M6_med_resampled,1
