test_file,ground_truth,dataframe_idx,dsc,volume_ratio_gt,volume_ratio_pred,k_fold
G7M4,G7M4_labels,0,0.9294254183769226,0.4499587118625641,0.4394589066505432,0.0
G5M5,G5M5_labels,1,0.9483526349067688,0.4954240918159485,0.4822167158126831,0.0
G3M4,G3M4_labels,2,0.9425322413444519,0.46351438760757446,0.45000776648521423,0.0
G4M8,G4M8_labels,3,0.95211261510849,0.47805255651474,0.4651696979999542,0.0
G1M2,G1M2_labels,4,0.9332283139228821,0.4838343560695648,0.47125479578971863,0.0
G3M1,G3M1_labels,5,0.9381464719772339,0.4747474789619446,0.46345120668411255,0.0
G8M4,G8M4_labels,6,0.9302901029586792,0.4693393409252167,0.44653281569480896,0.0
G6M2,G6M2_labels,7,0.9464123249053955,0.4583475887775421,0.4502165615558624,0.0
G4M6,G4M6_labels,8,0.9459121823310852,0.4383005201816559,0.43184319138526917,0.0
G1M1,G1M1_labels,9,0.9443484544754028,0.49106985330581665,0.4791451096534729,0.0
G2M2,G2M2_labels,10,0.9368993043899536,0.4594229757785797,0.44612011313438416,0.0
G1M7,G1M7_labels,11,0.9235023856163025,0.4734908640384674,0.44998839497566223,0.0
G3M7,G3M7_labels,12,0.9584864974021912,0.47398945689201355,0.46897274255752563,0.0
G5M2,G5M2_labels,13,0.9443239569664001,0.48421499133110046,0.4738878011703491,0.0
G5M3,G5M3_labels,14,0.9457144141197205,0.4792264401912689,0.4681878685951233,0.0
G1M6,G1M6_labels,15,0.9342556595802307,0.4605728089809418,0.4433816373348236,0.0
G5M6,G5M6_labels,16,0.9450257420539856,0.47073066234588623,0.45865121483802795,0.0
G4M3,G4M3_labels,17,0.9494141936302185,0.48209449648857117,0.4712566137313843,0.0
G8M3,G8M3_labels,18,0.9450430274009705,0.4863666892051697,0.46580520272254944,0.0
G3M5,G3M5_labels,19,0.9364376664161682,0.4572390019893646,0.4432617127895355,0.0
G1M5,G1M5_labels,20,0.9302448630332947,0.4738742709159851,0.45638182759284973,0.0
G4M7,G4M7_labels,21,0.952106773853302,0.4263871908187866,0.41786977648735046,0.0
G8M6,G8M6_labels,22,0.919175922870636,0.479544073343277,0.46010494232177734,0.0
G5M7,G5M7_labels,23,0.9427444934844971,0.49892887473106384,0.48214754462242126,0.0
G8M7,G8M7_labels,24,0.9198135137557983,0.4799867570400238,0.46083706617355347,0.0
G6M3,G6M3_labels,25,0.9502127766609192,0.4764785170555115,0.46278905868530273,0.0
G4M5,G4M5_labels,26,0.9499256014823914,0.4774608910083771,0.46431809663772583,0.0
G2M8,G2M8_labels,27,0.9482296109199524,0.4445593059062958,0.42977622151374817,0.0
G6M8,G6M8_labels,28,0.9423887729644775,0.4573141634464264,0.4433264136314392,0.0
G4M1,G4M1_labels,29,0.9457353949546814,0.4901646375656128,0.4744766056537628,0.0
G5M1,G5M1_labels,30,0.9512768983840942,0.4981929361820221,0.48833245038986206,0.0
G2M6,G2M6_labels,31,0.9470354914665222,0.47019028663635254,0.4570959210395813,0.0
G8M2,G8M2_labels,32,0.9109624028205872,0.4768770933151245,0.464194655418396,0.0
G6M4,G6M4_labels,33,0.9442302584648132,0.4783124327659607,0.4672296345233917,0.0
G4M2,G4M2_labels,34,0.9483439922332764,0.47930240631103516,0.4650065004825592,0.0
G3M3,G3M3_labels,35,0.9586971402168274,0.4648670256137848,0.4565759599208832,0.0
G2M3,G2M3_labels,36,0.9472725987434387,0.44090670347213745,0.4316302239894867,0.0
G6M5,G6M5_labels,37,0.9493528008460999,0.4783809781074524,0.45945653319358826,0.0
G7M3,G7M3_labels,38,0.9263572692871094,0.4790763854980469,0.46511682868003845,0.0
G3M8,G3M8_labels,39,0.9537295699119568,0.45983654260635376,0.4488629400730133,0.0
G2M5,G2M5_labels,40,0.9481809139251709,0.4733623266220093,0.45893216133117676,0.0
G7M8,G7M8_labels,41,0.9346051812171936,0.45653268694877625,0.44008728861808777,0.0
G3M6,G3M6_labels,42,0.9458013772964478,0.4535016417503357,0.44552284479141235,0.0
G1M8,G1M8_labels,43,0.9393799901008606,0.5033014416694641,0.48845288157463074,0.0
G4M4,G4M4_labels,44,0.9412105679512024,0.47354981303215027,0.46119746565818787,0.0
G7M7,G7M7_labels,45,0.9457648992538452,0.49285173416137695,0.476007342338562,0.0
G2M1,G2M1_labels,46,0.9434511065483093,0.47622281312942505,0.4609255790710449,0.0
G7M5,G7M5_labels,47,0.9344834089279175,0.45919978618621826,0.44081172347068787,0.0
G3M2,G3M2_labels,48,0.9272370338439941,0.4511856734752655,0.43701398372650146,0.0
G1M4,G1M4_labels,49,0.9431643486022949,0.5007244348526001,0.483113169670105,0.0
G1M3,G1M3_labels,50,0.9403108954429626,0.473575234413147,0.4631507098674774,0.0
G5M8,G5M8_labels,51,0.9426349401473999,0.48383286595344543,0.46945345401763916,0.0
G8M1,G8M1_labels,52,0.917763352394104,0.4968283474445343,0.47205862402915955,1.0
G6M1,G6M1_labels,53,0.9309102892875671,0.4865359961986542,0.4696536064147949,1.0
G7M1,G7M1_labels,54,0.9176654815673828,0.47307726740837097,0.45820513367652893,1.0
G5M4,G5M4_labels,55,0.9447842836380005,0.4664441645145416,0.4533058702945709,1.0
G8M5,G8M5_labels,56,0.9334896206855774,0.4481413662433624,0.43771591782569885,1.0
G7M2,G7M2_labels,57,0.9183787703514099,0.4562745690345764,0.44086381793022156,1.0
G6M7,G6M7_labels,58,0.947403073310852,0.4645010530948639,0.4506537616252899,1.0
G7M6,G7M6_labels,59,0.9402088522911072,0.508378267288208,0.4974578619003296,1.0
G6M6,G6M6_labels,60,0.9401469230651855,0.4470539689064026,0.44123977422714233,1.0
G2M4,G2M4_labels,61,0.9360302686691284,0.46622875332832336,0.45003175735473633,1.0
