test_file,ground_truth,dataframe_idx,dsc,volume_ratio_gt,volume_ratio_pred,k_fold
G7M4,G7M4_labels,0,0.929960310459137,0.4499587118625641,0.43920305371284485,0.0
G5M5,G5M5_labels,1,0.9485878944396973,0.4954240918159485,0.48207902908325195,0.0
G3M4,G3M4_labels,2,0.9438168406486511,0.46351438760757446,0.4502674341201782,0.0
G4M8,G4M8_labels,3,0.9544101357460022,0.47805255651474,0.46531155705451965,0.0
G1M2,G1M2_labels,4,0.9437283277511597,0.4838343560695648,0.4732365906238556,0.0
G3M1,G3M1_labels,5,0.9452733397483826,0.4747474789619446,0.4634339511394501,0.0
G8M4,G8M4_labels,6,0.9323248267173767,0.4693393409252167,0.4462452530860901,0.0
G6M2,G6M2_labels,7,0.9476803541183472,0.4583475887775421,0.449952095746994,0.0
G4M6,G4M6_labels,8,0.9539087414741516,0.4383005201816559,0.4326169490814209,0.0
G1M1,G1M1_labels,9,0.9505478739738464,0.49106985330581665,0.48001164197921753,0.0
G2M2,G2M2_labels,10,0.944562554359436,0.4594229757785797,0.4466973543167114,0.0
G1M7,G1M7_labels,11,0.9375448226928711,0.4734908640384674,0.453950434923172,0.0
G3M7,G3M7_labels,12,0.9582297801971436,0.47398945689201355,0.46857574582099915,0.0
G5M2,G5M2_labels,13,0.948537290096283,0.48421499133110046,0.4748416543006897,0.0
G5M3,G5M3_labels,14,0.9538999199867249,0.4792264401912689,0.46964484453201294,0.0
G1M6,G1M6_labels,15,0.9488124847412109,0.4605728089809418,0.44503331184387207,0.0
G5M6,G5M6_labels,16,0.9492767453193665,0.47073066234588623,0.45963960886001587,0.0
G4M3,G4M3_labels,17,0.9528955221176147,0.48209449648857117,0.4713563024997711,0.0
G8M3,G8M3_labels,18,0.9485438466072083,0.4863666892051697,0.4665519595146179,0.0
G3M5,G3M5_labels,19,0.9404070377349854,0.4572390019893646,0.4440344274044037,0.0
G1M5,G1M5_labels,20,0.942120373249054,0.4738742709159851,0.4598081707954407,0.0
G4M7,G4M7_labels,21,0.9581407308578491,0.4263871908187866,0.41822394728660583,0.0
G8M6,G8M6_labels,22,0.9210383296012878,0.479544073343277,0.4603097438812256,0.0
G5M7,G5M7_labels,23,0.9545586705207825,0.49892887473106384,0.48601073026657104,0.0
G8M7,G8M7_labels,24,0.9256483316421509,0.4799867570400238,0.4617512822151184,0.0
G6M3,G6M3_labels,25,0.951140284538269,0.4764785170555115,0.4632096588611603,0.0
G4M5,G4M5_labels,26,0.9536159038543701,0.4774608910083771,0.4650072455406189,0.0
G2M8,G2M8_labels,27,0.9529909491539001,0.4445593059062958,0.4309632480144501,0.0
G6M8,G6M8_labels,28,0.9488301277160645,0.4573141634464264,0.4438316822052002,0.0
G4M1,G4M1_labels,29,0.9499224424362183,0.4901646375656128,0.47590526938438416,0.0
G5M1,G5M1_labels,30,0.950432300567627,0.4981929361820221,0.4887641668319702,0.0
G2M6,G2M6_labels,31,0.9498136043548584,0.47019028663635254,0.45744141936302185,0.0
G8M2,G8M2_labels,32,0.9166630506515503,0.4768770933151245,0.4642089605331421,0.0
G6M4,G6M4_labels,33,0.9499439001083374,0.4783124327659607,0.4683837294578552,0.0
G4M2,G4M2_labels,34,0.9526234865188599,0.47930240631103516,0.46511292457580566,0.0
G3M3,G3M3_labels,35,0.9625660181045532,0.4648670256137848,0.4573554992675781,0.0
G2M3,G2M3_labels,36,0.9500607252120972,0.44090670347213745,0.43268558382987976,0.0
G6M5,G6M5_labels,37,0.9499610066413879,0.4783809781074524,0.45937448740005493,0.0
G7M3,G7M3_labels,38,0.9273340106010437,0.4790763854980469,0.4653603136539459,0.0
G3M8,G3M8_labels,39,0.9563969373703003,0.45983654260635376,0.44946032762527466,0.0
G2M5,G2M5_labels,40,0.954778790473938,0.4733623266220093,0.4597753882408142,0.0
G7M8,G7M8_labels,41,0.9372773170471191,0.45653268694877625,0.4407961666584015,0.0
G3M6,G3M6_labels,42,0.9528804421424866,0.4535016417503357,0.4460943937301636,0.0
G1M8,G1M8_labels,43,0.9481963515281677,0.5033014416694641,0.4896097779273987,0.0
G4M4,G4M4_labels,44,0.943443775177002,0.47354981303215027,0.46133917570114136,0.0
G7M7,G7M7_labels,45,0.947068452835083,0.49285173416137695,0.47614431381225586,0.0
G2M1,G2M1_labels,46,0.9490891695022583,0.47622281312942505,0.46183788776397705,0.0
G7M5,G7M5_labels,47,0.9381762146949768,0.45919978618621826,0.4420470595359802,0.0
G3M2,G3M2_labels,48,0.9394571185112,0.4511856734752655,0.4372374415397644,0.0
G1M4,G1M4_labels,49,0.9501001834869385,0.5007244348526001,0.48447558283805847,0.0
G1M3,G1M3_labels,50,0.9468749165534973,0.473575234413147,0.463363915681839,0.0
G5M8,G5M8_labels,51,0.9562686085700989,0.48383286595344543,0.4737560451030731,0.0
G8M1,G8M1_labels,52,0.9203973412513733,0.4968283474445343,0.4722939431667328,1.0
G6M1,G6M1_labels,53,0.9394468069076538,0.4865359961986542,0.4696677625179291,1.0
G7M1,G7M1_labels,54,0.9169408082962036,0.47307726740837097,0.45813655853271484,1.0
G5M4,G5M4_labels,55,0.9445565342903137,0.4664441645145416,0.45346635580062866,1.0
G8M5,G8M5_labels,56,0.9342221617698669,0.4481413662433624,0.4376705288887024,1.0
G7M2,G7M2_labels,57,0.9194338917732239,0.4562745690345764,0.4409181773662567,1.0
G6M7,G6M7_labels,58,0.9483136534690857,0.4645010530948639,0.4507925510406494,1.0
G7M6,G7M6_labels,59,0.9435091018676758,0.508378267288208,0.4969995319843292,1.0
G6M6,G6M6_labels,60,0.9400643706321716,0.4470539689064026,0.4407435357570648,1.0
G2M4,G2M4_labels,61,0.9405132532119751,0.46622875332832336,0.4509679079055786,1.0
